^C:\USERS\Я\SOURCE\REPOS\LESAN47\LESAN47\X64\DEBUG\LESAN47.OBJ
C:\USERS\я\SOURCE\REPOS\LESAN47\LESAN47\X64\DEBUG\LESAN47.ILK
C:\USERS\я\SOURCE\REPOS\LESAN47\X64\DEBUG\LESAN47.EXE
C:\USERS\я\SOURCE\REPOS\LESAN47\X64\DEBUG\LESAN47.PDB
