^C:\USERS\Я\SOURCE\REPOS\TEST\TEST\TEST.CPP
C:\USERS\я\SOURCE\REPOS\TEST\TEST\X64\DEBUG\VC143.PDB
C:\USERS\я\SOURCE\REPOS\TEST\TEST\X64\DEBUG\VC143.IDB
C:\USERS\я\SOURCE\REPOS\TEST\TEST\X64\DEBUG\TEST.OBJ
